<?xml version="1.0" encoding="UTF-8"?>
<kml>
    <Document>
        <name>ALL_BRANCH_ATM.kml</name>
        <Style id="BRANCH_1">
            <IconStyle>
                <Icon>
                    <href>http://www.ocbc.com.my/assets/images/icons/map_all_branches.png</href>
                </Icon>
            </IconStyle>
        </Style>
        <Placemark>
            <name><![CDATA[<b><p>OCBC Alor Setar</p></b>]]>
            </name>
            <description>
                <![CDATA[<br/><p>No 209 Jalan Gangsa<br />
                Kawasan Perusahaan Mergong 2<br />
                05150 Alor Setar<br /></p>
                <p><b>Banking Hours :</b><br />
                Monday – Friday  9:30am to 4:00pm <br />
                <b>Personal Banking :</b><br />
                Monday – Friday  9:30am to 5:00pm</p>]]>
            </description>
            <Point>
                <coordinates>100.359867,6.131907,0</coordinates>
            </Point>
            <styleUrl>#BRANCH_1</styleUrl>
        </Placemark>
        <Style id="BRANCH_2">
            <IconStyle>
                <Icon>
                    <href>http://www.ocbc.com.my/assets/images/icons/map_all_branches.png</href>
                </Icon>
            </IconStyle>
        </Style>
        <Placemark>
            <name><![CDATA[<b><p>OCBC Ipoh Main</p></b>]]>
            </name>
            <description>
                <![CDATA[<p><br />2 Jalan Dato Maharaja Lela<br />
                30000 Ipoh<br />
                Perak Darul Ridzuan<br /></p>
                <p><b>Banking Hours :</b><br />
                Monday – Friday  9:30am to 4:00pm <br />
                <b>Personal Banking : </b><br />
                Monday – Friday  9:30am to 5:00pm</p>]]>
            </description>
            <Point>
                <coordinates>101.076745,4.596870,0</coordinates>
            </Point>
            <styleUrl>#BRANCH_2</styleUrl>
        </Placemark>
        <Style id="BRANCH_3">
            <IconStyle>
                <Icon>
                    <href>http://www.ocbc.com.my/assets/images/icons/map_all_branches.png</href>
                </Icon>
            </IconStyle>
        </Style>
        <Placemark>
            <name><![CDATA[<b><p>OCBC Penang</p></b>]]>
            </name>
            <description>
                <![CDATA[<p><br />36 Lebuh Pantai<br />
                10300 Pulau Pinang<br /></p>
                <p><b>Banking Hours :</b><br />
                Monday – Friday  9:30am to 4:00pm <br />
                <b>Personal Banking :</b><br />
                Monday – Friday   9:30am to 5:00pm </p>]]>
            </description>
            <Point>
                <coordinates>100.33312,5.41129,0</coordinates>
            </Point>
            <styleUrl>#BRANCH_3</styleUrl>
        </Placemark>
        <Style id="BRANCH_4">
            <IconStyle>
                <Icon>
                    <href>http://www.ocbc.com.my/assets/images/icons/map_all_branches.png</href>
                </Icon>
            </IconStyle>
        </Style>
        <Placemark>
            <name><![CDATA[<b><p>OCBC Batu Maung</p></b>]]>
            </name>
            <description>
                <![CDATA[<br/><p>No.13 – 15 Lintang Batu Maung 1<br />
                11960 Pulau Pinang<br /></p>
                <p><b>Banking Hours :</b><br />
                Monday – Friday  9:30am to 4:00pm <br />
                <b>Personal Banking :</b><br />
                Monday – Friday  9:30am to 5:00pm</p>]]>
            </description>
            <Point>
                <coordinates>100.28125,5.28731,0</coordinates>
            </Point>
            <styleUrl>#BRANCH_4</styleUrl>
        </Placemark>
        <Style id="BRANCH_5">
            <IconStyle>
                <Icon>
                    <href>http://www.ocbc.com.my/assets/images/icons/map_all_branches.png</href>
                </Icon>
            </IconStyle>
        </Style>
        <Placemark>
            <name><![CDATA[<b><p>OCBC Bukit Mertajam</p></b>]]>
            </name>
            <description>
                <![CDATA[<br /><p>No 47,49,51,53<br>
                Jalan Perniagaan Gemilang 1<br>
                Pusat Perniagaan Gemilang<br>
                14000 Bukit Mertajam<br>Pulau Pinang<br></p>
                <p><b>Banking Hours :</b><br />
                Monday – Friday  9:30am to 4:00pm <br />
                <b>Personal Banking  :</b><br />
                Monday – Friday  9:30am to 5:00pm</p>]]>
            </description>
            <Point>
                <coordinates>100.442551,5.351399,0</coordinates>
            </Point>
            <styleUrl>#BRANCH_5</styleUrl>
        </Placemark>
        <Style id="BRANCH_6">
            <IconStyle>
                <Icon>
                    <href>http://www.ocbc.com.my/assets/images/icons/map_all_branches.png</href>
                </Icon>
            </IconStyle>
        </Style>
        <Placemark>
            <name><![CDATA[<b><p>OCBC Taiping</p></b>]]>
            </name>
            <description>
                <![CDATA[<br/><p>24-30 Jalan Berek<br />
                34000 Taiping<br />
                Perak Darul Ridzuan<br /></p><p><b>
                Banking Hours :</b><br />
                Monday – Friday  9:30am to 4:00pm <br />
                <b>Personal Banking :</b><br />
                Monday – Friday  9:30am to 5:00pm</p>]]>
            </description>
            <Point>
                <coordinates>100.73757,4.8541,0</coordinates>
            </Point>
            <styleUrl>#BRANCH_6</styleUrl>
        </Placemark>
        <Style id="BRANCH_7">
            <IconStyle>
                <Icon>
                    <href>http://www.ocbc.com.my/assets/images/icons/map_all_branches.png</href>
                </Icon>
            </IconStyle>
        </Style>
        <Placemark>
            <name><![CDATA[<b><p>OCBC Teluk Intan</p></b>]]>
            </name>
            <description>
                <![CDATA[<br/><p>1054 Jalan Mahkota<br />
                36000 Teluk Intan<br />
                Perak Darul Ridzuan<br /></p><p><b>
                Banking Hours :</b><br />
                Monday – Friday  9:30am to 4:00pm <br />
                <b>Personal Banking :</b><br />
                Monday – Friday  9:30am to 5:00pm</p>]]>
            </description>
            <Point>
                <coordinates>101.01801,4.01241,0</coordinates>
            </Point>
            <styleUrl>#BRANCH_7</styleUrl>
        </Placemark>
        <Style id="BRANCH_8">
            <IconStyle>
                <Icon>
                    <href>http://www.ocbc.com.my/assets/images/icons/map_all_branches.png</href>
                </Icon>
            </IconStyle>
        </Style>
        <Placemark>
            <name><![CDATA[<b><p>OCBC Kuala Lumpur Main</p></b>]]>
            </name>
            <description>
                <![CDATA[<br/><p>Ground Floor<br />
                Menara OCBC<br />
                18 Jalan Tun Perak<br />
                50050 Kuala Lumpur<br /></p><p><b>
                Banking Hours :</b><br />
                Monday – Friday  9:30am to 4:00pm <br />
                <b>Personal Banking :</b><br />
                Monday – Friday  9:30am to 5:00pm</p>]]>
            </description>
            <Point>
                <coordinates>101.696116,3.15019,0</coordinates>
            </Point>
            <styleUrl>#BRANCH_8</styleUrl>
        </Placemark>
        <Style id="BRANCH_9">
            <IconStyle>
                <Icon>
                    <href>http://www.ocbc.com.my/assets/images/icons/map_all_branches.png</href>
                </Icon>
            </IconStyle>
        </Style>
        <Placemark>
            <name><![CDATA[<b><p>OCBC Kepong</p></b>]]>
            </name>
            <description>
                <![CDATA[<br/><p>60 Vista Magna<br />
                Jalan Prima<br />
                Metro Prima Kepong<br />
                52100 Kuala Lumpur<br /></p><p><b>
                Banking Hours :</b><br />
                Monday – Friday  9:30am to 4:00pm <br />
                <b>Personal Banking :</b><br />
                Monday – Friday  9:30am to 5:00pm</p>]]>
            </description>
            <Point>
                <coordinates>101.62148,3.20559,0</coordinates>
            </Point>
            <styleUrl>#BRANCH_9</styleUrl>
        </Placemark>
        <Style id="BRANCH_10">
            <IconStyle>
                <Icon>
                    <href>http://www.ocbc.com.my/assets/images/icons/map_all_branches.png</href>
                </Icon>
            </IconStyle>
        </Style>
        <Placemark>
            <name><![CDATA[<b><p>OCBC Ampang</p></b>]]>
            </name>
            <description>
                <![CDATA[<br/><p>Menara Great Eastern<br />
                303 Jalan Ampang<br />
                50450 Kuala Lumpur<br /></p><p>
                <b>Banking Hours :</b><br />
                Monday – Friday  9:30am to 4:00pm <br />
                <b>Personal Banking :</b><br />
                Monday – Friday  9:30am to 5:00pm</p>]]>
            </description>
            <Point>
                <coordinates>101.73725,3.16057,0</coordinates>
            </Point>
            <styleUrl>#BRANCH_10</styleUrl>
        </Placemark>
        <Style id="BRANCH_11">
            <IconStyle>
                <Icon>
                    <href>http://www.ocbc.com.my/assets/images/icons/map_all_branches.png</href>
                </Icon>
            </IconStyle>
        </Style>
        <Placemark>
            <name><![CDATA[<b><p>OCBC Subang Jaya</p></b>]]>
            </name>
            <description>
                <![CDATA[<br/><p>1A-A – 4A-A<br />
                Jalan USJ 10/1A<br />
                Pusat Perniagaan USJ 10<br />
                47610 UEP Subang Jaya<br />
                Selangor Darul Ehsan<br /></p><p>
                <b>Banking Hours :</b><br />
                Monday – Friday  9:30am to 4:00pm <br />
                <b>Personal Banking :</b><br />
                Monday – Friday  9:30am to 5:00pm</p>]]>
            </description>
            <Point>
                <coordinates>101.58592,3.048586,0</coordinates>
            </Point>
            <styleUrl>#BRANCH_11</styleUrl>
        </Placemark>
        <Style id="BRANCH_12">
            <IconStyle>
                <Icon>
                    <href>http://www.ocbc.com.my/assets/images/icons/map_all_branches.png</href>
                </Icon>
            </IconStyle>
        </Style>
        <Placemark>
            <name><![CDATA[<b><p>OCBC Petaling Jaya</p></b>]]>
            </name>
            <description>
                <![CDATA[<br/><p>89, 91 & 93 Jalan SS 21/60
                <br />Damansara Utama<br />
                47400 Petaling Jaya<br /></p><p>
                <b>Banking Hours :</b><br />
                Monday – Friday  9:30am to 4:00pm <br />
                <b>Personal Banking :</b><br />
                Monday – Friday  9:30am to 5:00pm</p>]]>
            </description>
            <Point>
                <coordinates>101.61152,3.1182,0</coordinates>
            </Point>
            <styleUrl>#BRANCH_12</styleUrl>
        </Placemark>
        <Style id="BRANCH_13">
            <IconStyle>
                <Icon>
                    <href>http://www.ocbc.com.my/assets/images/icons/map_all_branches.png</href>
                </Icon>
            </IconStyle>
        </Style>
        <Placemark>
            <name><![CDATA[<b><p>OCBC Kajang</p></b>]]>
            </name>
            <description>
                <![CDATA[<br/><p>4 & 5 Jalan Raja Haroun<br />
                43000 Kajang<br />
                Selangor Darul Ehsan<br /></p><p>
                <b>Banking Hours :</b><br />
                Monday – Friday  9:30am to 4:00pm <br />
                <b>Personal Banking :</b><br />
                Monday – Friday  9:30am to 5:00pm</p>]]>
            </description>
            <Point>
                <coordinates>101.78636,2.99773,0</coordinates>
            </Point>
            <styleUrl>#BRANCH_13</styleUrl>
        </Placemark>
        <Style id="BRANCH_14">
            <IconStyle>
                <Icon>
                    <href>http://www.ocbc.com.my/assets/images/icons/map_all_branches.png</href>
                </Icon>
            </IconStyle>
        </Style>
        <Placemark>
            <name><![CDATA[<b><p>OCBC Klang</p></b>]]>
            </name>
            <description>
                <![CDATA[<br/><p>19 Jalan Stesen<br />
                41000 Klang<br />
                Selangor Darul Ehsan<br /></p><p>
                <b>Banking Hours :</b><br />
                Monday – Friday  9:30am to 4:00pm <br />
                <b>Personal Banking :</b><br />
                Monday – Friday  9:30am to 5:00pm</p>]]>
            </description>
            <Point>
                <coordinates>101.44814,3.03185,0</coordinates>
            </Point>
            <styleUrl>#BRANCH_14</styleUrl>
        </Placemark>
        <Style id="BRANCH_15">
            <IconStyle>
                <Icon>
                    <href>http://www.ocbc.com.my/assets/images/icons/map_all_branches.png</href>
                </Icon>
            </IconStyle>
        </Style>
        <Placemark>
            <name><![CDATA[<b><p>OCBC Puchong</p></b>]]>
            </name>
            <description>
                <![CDATA[<br/><p>GF-2&3, 1F-1&2, Tower 2<br />
                Puchong Financial Corporate Centre (PFCC)<br />
                Jalan Puteri 1/2, Bandar Puteri<br />
                47100 Puchong<br />
                Selangor Darul Ehsan<br /></p><p>
                <b>Banking Hours :</b><br />
                Monday – Friday  9:30am to 4:00pm <br />
                <b>Personal Banking :</b><br />
                Monday – Friday  9:30am to 5:00pm</p>]]>
            </description>
            <Point>
                <coordinates>101.615443,3.025803,0</coordinates>
            </Point>
            <styleUrl>#BRANCH_15</styleUrl>
        </Placemark>
        <Style id="BRANCH_16">
            <IconStyle>
                <Icon>
                    <href>http://www.ocbc.com.my/assets/images/icons/map_all_branches.png</href>
                </Icon>
            </IconStyle>
        </Style>
        <Placemark>
            <name><![CDATA[<b><p>OCBC Bukit Damansara</p></b>]]>
            </name>
            <description>
                <![CDATA[<br/><p>19 Jalan Setiapuspa<br />
                Bukit Damansara<br />
                50490 Kuala Lumpur<br /></p><p>
                <b>Banking Hours :</b><br />
                Monday – Friday  9:30am to 4:00pm <br />
                <b>Personal Banking :</b><br />
                Monday – Friday  9:30am to 5:00pm<br /><br/>
                Closed on National and State Holiday</p>]]>
            </description>
            <Point>
                <coordinates>101.66983,3.1519,0</coordinates>
            </Point>
            <styleUrl>#BRANCH_16</styleUrl>
        </Placemark>
        <Style id="BRANCH_17">
            <IconStyle>
                <Icon>
                    <href>http://www.ocbc.com.my/assets/images/icons/map_all_branches.png</href>
                </Icon>
            </IconStyle>
        </Style>
        <Placemark>
            <name><![CDATA[<b><p>OCBC Ijok</p></b>]]>
            </name>
            <description>
                <![CDATA[<br/><p>No. 53 & 55 Jalan PPAJ 3/1<br />
                Pusat Perdagangan Alam Jaya<br />
                42300 Bandar Puncak Alam<br />
                Selangor Darul Ehsan<br /></p><p>
                <b>Banking Hours :</b><br />
                Monday – Friday  9:30am to 4:00pm <br />
                <b>Personal Banking :</b><br />
                Monday – Friday  9:30am to 5:00pm</p>]]>
            </description>
            <Point>
                <coordinates>101.43676,3.26615,0</coordinates>
            </Point>
            <styleUrl>#BRANCH_17</styleUrl>
        </Placemark>
        <Style id="BRANCH_18">
            <IconStyle>
                <Icon>
                    <href>http://www.ocbc.com.my/assets/images/icons/map_all_branches.png</href>
                </Icon>
            </IconStyle>
        </Style>
        <Placemark>
            <name><![CDATA[<b><p>OCBC Cheras</p></b>]]>
            </name>
            <description>
                <![CDATA[<br/><p>No. 1, 3, 5 & 7<br />
                Jalan Damai Niaga 1<br />
                Alam Damai, Cheras<br />
                56000 Kuala Lumpur<br /></p><p>
                <b>Banking Hours :</b><br />
                Monday – Friday  9:30am to 4:00pm <br />
                <b>Personal Banking:</b><br />
                Monday – Friday  9:30am to 5:00pm</p>]]>
            </description>
            <Point>
                <coordinates>101.76095,3.060403,0</coordinates>
            </Point>
            <styleUrl>#BRANCH_18</styleUrl>
        </Placemark>
        <Style id="BRANCH_19">
            <IconStyle>
                <Icon>
                    <href>http://www.ocbc.com.my/assets/images/icons/map_all_branches.png</href>
                </Icon>
            </IconStyle>
        </Style>
        <Placemark>
            <name><![CDATA[<b><p>OCBC Seremban</p></b>]]>
            </name>
            <description>
                <![CDATA[<br/><p>63 - 65 Jalan Dato Bandar Tunggal<br />
                70000 Seremban<br />
                Negeri Sembilan Darul Khusus<br /></p><p>
                <b>Banking Hours :</b><br />
                Monday – Friday  9:30am to 4:00pm <br />
                <b>Personal Banking :</b><br />
                Monday – Friday  9:30am to 5:00pm</p>]]>
            </description>
            <Point>
                <coordinates>101.95121,2.72274,0</coordinates>
            </Point>
            <styleUrl>#BRANCH_19</styleUrl>
        </Placemark>
        <Style id="BRANCH_20">
            <IconStyle>
                <Icon>
                    <href>http://www.ocbc.com.my/assets/images/icons/map_all_branches.png</href>
                </Icon>
            </IconStyle>
        </Style>
        <Placemark>
            <name><![CDATA[<b><p>OCBC Melaka</p></b>]]>
            </name>
            <description>
                <![CDATA[<br/><p>Lot FG-001, Ground Floor<br />
                Dataran Pahlawan Melaka Megamall<br />
                Jalan Merdeka 75000<br />
                Bandar Hilir Melaka<br /></p><p>
                Monday to Sunday 9.30am to 7.00pm<br /><br/>
                Closed on Chinese New Year, Hari Raya Aidilfitri,<br/>
                Labour Day and National Day</p>]]>
            </description>
            <Point>
                <coordinates>102.25422,2.18902,0</coordinates>
            </Point>
            <styleUrl>#BRANCH_20</styleUrl>
        </Placemark>
        <Style id="BRANCH_21">
            <IconStyle>
                <Icon>
                    <href>http://www.ocbc.com.my/assets/images/icons/map_all_branches.png</href>
                </Icon>
            </IconStyle>
        </Style>
        <Placemark>
            <name><![CDATA[<b><p>OCBC Johor Bahru</p></b>]]>
            </name>
            <description>
                <![CDATA[<br/><p>1 Jalan Ibrahim<br />
                80000 Johor Bahru<br />
                Johor Darul Takzim<br /></p><p>
                <b>Banking Hours :</b><br />
                Monday – Friday  9:30am to 4:00pm <br />
                <b>Personal Banking :</b><br />
                Monday – Friday  9:30am to 5:00pm</p>]]>
            </description>
            <Point>
                <coordinates>103.61322,1.40289,0</coordinates>
            </Point>
            <styleUrl>#BRANCH_21</styleUrl>
        </Placemark>
        <Style id="BRANCH_22">
            <IconStyle>
                <Icon>
                    <href>http://www.ocbc.com.my/assets/images/icons/map_all_branches.png</href>
                </Icon>
            </IconStyle>
        </Style>
        <Placemark>
            <name><![CDATA[<b><p>OCBC Muar</p></b>]]>
            </name>
            <description>
                <![CDATA[<br/><p>26 Jalan Maharani<br />
                84000 Muar<br />
                Johor Darul Takzim<br /></p><p>
                <b>Banking Hours :</b><br />
                Monday – Friday  9:30am to 4:00pm <br />
                <b>Personal Banking :</b><br />
                Monday – Friday  9:30am to 5:00pm</p>]]>
            </description>
            <Point>
                <coordinates>102.56909,2.03927,0</coordinates>
            </Point>
            <styleUrl>#BRANCH_22</styleUrl>
        </Placemark>
        <Style id="BRANCH_23">
            <IconStyle>
                <Icon>
                    <href>http://www.ocbc.com.my/assets/images/icons/map_all_branches.png</href>
                </Icon>
            </IconStyle>
        </Style>
        <Placemark>
            <name><![CDATA[<b><p>OCBC Segamat</p></b>]]>
            </name>
            <description>
                <![CDATA[<br/><p>109C-109E Jalan Genuang<br />
                85000 Segamat<br />
                Johor Darul Takzim<br /></p><p>
                <b>Banking Hours :</b><br />
                Monday – Friday  9:30am to 4:00pm <br />
                <b>Personal Banking :</b><br />
                Monday – Friday  9:30am to 5:00pm</p>]]>
            </description>
            <Point>
                <coordinates>102.83986,2.51052,0</coordinates>
            </Point>
            <styleUrl>#BRANCH_23</styleUrl>
        </Placemark>
        <Style id="BRANCH_24">
            <IconStyle>
                <Icon>
                    <href>http://www.ocbc.com.my/assets/images/icons/map_all_branches.png</href>
                </Icon>
            </IconStyle>
        </Style>
        <Placemark>
            <name><![CDATA[<b><p>OCBC Batu Pahat</p></b>]]>
            </name>
            <description>
                <![CDATA[<br/><p>108-2 Jalan Rahmat<br />
                83000 Batu Pahat<br />
                Johor Darul Takzim<br /></p><p>
                <b>Banking Hours :</b><br />
                Monday – Friday  9:30am to 4:00pm <br />
                <b>Personal Banking :</b><br />
                Monday – Friday  9:30am to 5:00pm</p>]]>
            </description>
            <Point>
                <coordinates>102.94706,1.84358,0</coordinates>
            </Point>
            <styleUrl>#BRANCH_24</styleUrl>
        </Placemark>
        <Style id="BRANCH_25">
            <IconStyle>
                <Icon>
                    <href>http://www.ocbc.com.my/assets/images/icons/map_all_branches.png</href>
                </Icon>
            </IconStyle>
        </Style>
        <Placemark>
            <name><![CDATA[<b><p>OCBC Kluang</p></b>]]>
            </name>
            <description>
                <![CDATA[<br/><p>8A Jalan Dato' Haji Hassan<br />
                86000 Kluang<br />
                Johor Darul Takzim<br /></p><p>
                <b>Banking Hours :</b><br />
                Monday – Friday  9:30am to 4:00pm <br />
                <b>Personal Banking :</b><br />
                Monday – Friday  9:30am to 5:00pm</p>]]>
            </description>
            <Point>
                <coordinates>103.31538,2.02879,0</coordinates>
            </Point>
            <styleUrl>#BRANCH_25</styleUrl>
        </Placemark>
        <Style id="BRANCH_26">
            <IconStyle>
                <Icon>
                    <href>http://www.ocbc.com.my/assets/images/icons/map_all_branches.png</href>
                </Icon>
            </IconStyle>
        </Style>
        <Placemark>
            <name><![CDATA[<b><p>OCBC Taman Molek</p></b>]]>
            </name>
            <description>
                <![CDATA[<br/><p>47 & 49 Jalan Molek 1/29<br />
                Taman Molek <br />
                81100 Johor Bahru<br />
                Johor Darul Takzim<br /></p><p>
                <b>Banking Hours :</b><br />
                Monday – Friday  9:30am to 4:00pm <br />
                Saturday 10:00am to 1:00pm<br />
                Sunday 10:30am to 1:00pm<br />
                <b>Personal Banking :</b><br />
                Monday – Friday  9:30am to 5:00pm<br /><br />
                Closed on National and State Holiday</p>]]>
            </description>
            <Point>
                <coordinates>103.73984,1.52527,0</coordinates>
            </Point>
            <styleUrl>#BRANCH_26</styleUrl>
        </Placemark>
        <Style id="BRANCH_27">
            <IconStyle>
                <Icon>
                    <href>http://www.ocbc.com.my/assets/images/icons/map_all_branches.png</href>
                </Icon>
            </IconStyle>
        </Style>
        <Placemark>
            <name><![CDATA[<b><p><strong>OCBC Kota Bharu<br /></strong></p></b>]]>
            </name>
            <description>
                <![CDATA[<br/><p>3940 Jalan Temenggong<br />
                15000 Kota Bharu<br />
                Kelantan Darul Naim <br/></p><p>
                <b>Banking Hours :</b><br />
                Sunday – Thursday  9:30am to 4:00pm <br />
                <b>Personal Banking :</b><br />
                Sunday – Thursday  9:30am to 5:00pm</p>]]>
            </description>
            <Point>
                <coordinates>102.25408,6.15372,0</coordinates>
            </Point>
            <styleUrl>#BRANCH_27</styleUrl>
        </Placemark>
        <Style id="BRANCH_28">
            <IconStyle>
                <Icon>
                    <href>http://www.ocbc.com.my/assets/images/icons/map_all_branches.png</href>
                </Icon>
            </IconStyle>
        </Style>
        <Placemark>
            <name><![CDATA[<b><p>OCBC Kuantan</p></b>]]>
            </name>
            <description>
                <![CDATA[<br/><p>40 Jalan Teluk Sisek<br />
                25000 Kuantan<br />
                Pahang Darul Makmur<br /></p><p>
                <b>Banking Hours :</b><br />
                Monday – Friday  9:30am to 4:00pm <br />
                <b>Personal Banking :</b><br />
                Monday – Friday  9:30am to 5:00pm</p>]]>
            </description>
            <Point>
                <coordinates>103.28008,3.80789,0</coordinates>
            </Point>
            <styleUrl>#BRANCH_28</styleUrl>
        </Placemark>
        <Style id="BRANCH_29">
            <IconStyle>
                <Icon>
                    <href>http://www.ocbc.com.my/assets/images/icons/map_all_branches.png</href>
                </Icon>
            </IconStyle>
        </Style>
        <Placemark>
            <name><![CDATA[<b><p>OCBC Kota Kinabalu</p></b>]]>
            </name>
            <description>
                <![CDATA[<br/><p>21 & 23 Jalan Pantai<br />
                88000 Kota Kinabalu<br />
                Sabah<br /></p><p>
                <b>Banking Hours :</b><br />
                Monday – Friday  9:30am to 4:00pm <br />
                <b>Personal Banking :</b><br />
                Monday – Friday  9:30am to 5:00pm</p>]]>
            </description>
            <Point>
                <coordinates>116.076897,5.984638,0</coordinates>
            </Point>
            <styleUrl>#BRANCH_29</styleUrl>
        </Placemark>
        <Style id="BRANCH_30">
            <IconStyle>
                <Icon>
                    <href>http://www.ocbc.com.my/assets/images/icons/map_all_branches.png</href>
                </Icon>
            </IconStyle>
        </Style>
        <Placemark>
            <name><![CDATA[<b><p>OCBC Kuching</p></b>]]>
            </name>
            <description>
                <![CDATA[<br/><p>UG Floor, Gateway Kuching<br />
                No.9, Jalan Bukit Mata<br />93100 Kuching<br />
                Sarawak<br /></p><p>
                <b>Banking Hours :</b><br />
                Monday – Friday 9:30am to 4:00pm <br />
                <b>Personal Banking :</b><br />
                Monday – Friday  9:30am to 5:00pm</p>]]>
            </description>
            <Point>
                <coordinates>110.353346,1.559351,0</coordinates>
            </Point>
            <styleUrl>#BRANCH_30</styleUrl>
        </Placemark>
        <Style id="BRANCH_31">
            <IconStyle>
                <Icon>
                    <href>http://www.ocbc.com.my/assets/images/icons/map_all_branches.png</href>
                </Icon>
            </IconStyle>
        </Style>
        <Placemark>
            <name><![CDATA[<b><p>OCBC Miri</p></b>]]>
            </name>
            <description>
                <![CDATA[<br/><p>Lot1375 & 1376 Centrepoint Commercial<br />
                Centre (Phase 2)<br />
                Block 10 Miri Concession Land District<br />
                Kubu Road<br />
                98000 Miri<br />
                Sarawak<br /></p><p>
                <b>Banking Hours :</b><br />
                Monday – Friday  9:30am to 4:00pm <br />
                <b>Personal Banking :</b><br />
                Monday – Friday  9:30am to 5:00pm</p>]]>
            </description>
            <Point>
                <coordinates>113.983215,4.387811,0</coordinates>
            </Point>
            <styleUrl>#BRANCH_31</styleUrl>
        </Placemark>
    </Document>
</kml>